{
 "add_total_row": 0, 
 "apply_user_permissions": 1, 
 "creation": "2019-02-13 14:34:59.024569", 
 "disabled": 0, 
 "docstatus": 0, 
 "doctype": "Report", 
 "idx": 0, 
 "is_standard": "Yes", 
 "modified": "2019-02-13 14:34:59.024569", 
 "modified_by": "Administrator", 
 "module": "Gaisano Promotions", 
 "name": "Barcode Printing", 
 "owner": "Administrator", 
 "ref_doctype": "Promo Production", 
 "report_name": "Barcode Printing", 
 "report_type": "Script Report", 
 "roles": []
}