{
 "add_total_row": 0, 
 "apply_user_permissions": 1, 
 "creation": "2019-02-18 23:13:47.877535", 
 "disabled": 0, 
 "docstatus": 0, 
 "doctype": "Report", 
 "idx": 0, 
 "is_standard": "Yes", 
 "modified": "2019-03-04 11:47:00.322175", 
 "modified_by": "Administrator", 
 "module": "Gaisano Promotions", 
 "name": "Promotions Report", 
 "owner": "Administrator", 
 "ref_doctype": "Promotions", 
 "report_name": "Promotions Report", 
 "report_type": "Script Report", 
 "roles": []
}